<?xml version="1.0" encoding="UTF-8"?>
<svg width="21px" height="18px" viewBox="0 0 21 18" version="1.1" xmlns="http://www.w3.org/2000/svg" xmlns:xlink="http://www.w3.org/1999/xlink">
    <!-- Generator: Sketch 3.8.1 (29687) - http://www.bohemiancoding.com/sketch -->
    <title>Group</title>
    <desc>Created with Sketch.</desc>
    <defs></defs>
    <g id="Page-1" stroke="none" stroke-width="1" fill="none" fill-rule="evenodd">
        <g id="Group">
            <rect id="Rectangle-1" fill="#FFFFFF" x="0" y="0" width="21" height="18"></rect>
            <g id="11-icon-product" transform="translate(4.000000, 2.000000)" fill="#1B2845">
                <g id="Page-1">
                    <g id="Category---ver3_good-Copy">
                        <g id="Group-9">
                            <path d="M13.678571,6.41071 L13.678571,8.23214 C13.678571,8.48512 13.590031,8.70015 13.412946,8.87723 C13.235862,9.05432 13.020835,9.14286 12.767857,9.14286 L8.821429,9.14286 L8.821429,13.08929 C8.821429,13.34226 8.732888,13.55729 8.555804,13.73438 C8.378719,13.91146 8.163692,14 7.910714,14 L6.089286,14 C5.836308,14 5.621281,13.91146 5.444196,13.73438 C5.267112,13.55729 5.178571,13.34226 5.178571,13.08929 L5.178571,9.14286 L1.232143,9.14286 C0.979165,9.14286 0.764138,9.05432 0.587054,8.87723 C0.409969,8.70015 0.321429,8.48512 0.321429,8.23214 L0.321429,6.41071 C0.321429,6.15774 0.409969,5.94271 0.587054,5.76562 C0.764138,5.58854 0.979165,5.5 1.232143,5.5 L5.178571,5.5 L5.178571,1.55357 C5.178571,1.30059 5.267112,1.08557 5.444196,0.90848 C5.621281,0.7314 5.836308,0.64286 6.089286,0.64286 L7.910714,0.64286 C8.163692,0.64286 8.378719,0.7314 8.555804,0.90848 C8.732888,1.08557 8.821429,1.30059 8.821429,1.55357 L8.821429,5.5 L12.767857,5.5 C13.020835,5.5 13.235862,5.58854 13.412946,5.76562 C13.590031,5.94271 13.678571,6.15774 13.678571,6.41071 L13.678571,6.41071 L13.678571,6.41071 Z" id=""></path>
                        </g>
                    </g>
                </g>
            </g>
        </g>
    </g>
</svg>