<?xml version="1.0" encoding="UTF-8"?>
<svg width="33px" height="83px" viewBox="0 0 33 83" version="1.1" xmlns="http://www.w3.org/2000/svg" xmlns:xlink="http://www.w3.org/1999/xlink">
    <!-- Generator: Sketch 3.8.1 (29687) - http://www.bohemiancoding.com/sketch -->
    <title>15-bx-nav-left</title>
    <desc>Created with Sketch.</desc>
    <defs>
        <rect id="path-1" x="0" y="0" width="33" height="85"></rect>
    </defs>
    <g id="Page-1" stroke="none" stroke-width="1" fill="none" fill-rule="evenodd">
        <g id="15-bx-nav-left" transform="translate(0.000000, -1.000000)">
            <mask id="mask-2" fill="white">
                <use xlink:href="#path-1"></use>
            </mask>
            <g id="Mask"></g>
            <g mask="url(#mask-2)" id="Page-1">
                <g transform="translate(1.000000, 1.000000)">
                    <g>
                        <g id="Start---ver3_good">
                            <g id="Group-16">
                                <g id="Group-23">
                                    <path d="M41.5,83 C64.4198171,83 83,64.4198171 83,41.5 C83,18.5801829 64.4198171,0 41.5,0 C18.5801829,0 0,18.5801829 0,41.5 C0,64.4198171 18.5801829,83 41.5,83 L41.5,83 Z" id="Oval-289" stroke="#DEDEDE" fill="#F5F5F5"></path>
                                    <rect id="Rectangle-2" fill="#DEDEDE" x="31" y="1" width="1" height="81"></rect>
                                    <path d="M22.108817,36.2840402 L17.0714286,41.3214286 L22.108817,46.358817 C22.2289813,46.4789813 22.2890625,46.6212789 22.2890625,46.7857143 C22.2890625,46.9501496 22.2289813,47.0924473 22.108817,47.2126116 L20.5340402,48.7873884 C20.4138759,48.9075527 20.2715782,48.9676339 20.1071429,48.9676339 C19.9427075,48.9676339 19.8004098,48.9075527 19.6802455,48.7873884 L12.641183,41.7483259 C12.5210187,41.6281616 12.4609375,41.4858639 12.4609375,41.3214286 C12.4609375,41.1569932 12.5210187,41.0146955 12.641183,40.8945313 L19.6802455,33.8554688 C19.8004098,33.7353045 19.9427075,33.6752232 20.1071429,33.6752232 C20.2715782,33.6752232 20.4138759,33.7353045 20.5340402,33.8554688 L22.108817,35.4302455 C22.2289813,35.5504098 22.2890625,35.6927075 22.2890625,35.8571429 C22.2890625,36.0215782 22.2289813,36.1638759 22.108817,36.2840402 L22.108817,36.2840402 L22.108817,36.2840402 Z" id="" fill="#3772FF"></path>
                                </g>
                            </g>
                        </g>
                    </g>
                </g>
            </g>
        </g>
    </g>
</svg>