<?xml version="1.0" encoding="UTF-8"?>
<svg width="1920px" height="132px" viewBox="0 0 1920 132" version="1.1" xmlns="http://www.w3.org/2000/svg" xmlns:xlink="http://www.w3.org/1999/xlink">
    <!-- Generator: Sketch 3.8.1 (29687) - http://www.bohemiancoding.com/sketch -->
    <title>Combined Shape</title>
    <desc>Created with Sketch.</desc>
    <defs>
        <linearGradient x1="50%" y1="100%" x2="50%" y2="3.59135842%" id="linearGradient-1">
            <stop stop-color="#020410" stop-opacity="0.842561141" offset="0%"></stop>
            <stop stop-color="#030410" stop-opacity="0.424847147" offset="100%"></stop>
        </linearGradient>
    </defs>
    <g id="Page-1" stroke="none" stroke-width="1" fill="none" fill-rule="evenodd">
        <g id="Start---ver3_good" transform="translate(0.000000, -472.000000)" fill="url(#linearGradient-1)">
            <g id="Bitmap" transform="translate(0.000000, 159.000000)">
                <path d="M959.5,313 C959.5,313 1337.53994,313.553663 1406.20573,313 C1497.44663,313.553663 1481.69291,383.171491 1572.51771,382.245902 C1672.45469,383.171491 2279,382.245902 2279,382.245902 L2279,445 L959.5,445 L959.5,313 Z M959.5,313 C959.5,313 581.460064,313.553663 512.794271,313 C421.553373,313.553663 437.307088,383.171491 346.482292,382.245902 C246.545307,383.171491 -360,382.245902 -360,382.245902 L-360,445 L959.5,445 L959.5,313 Z" id="Combined-Shape"></path>
            </g>
        </g>
    </g>
</svg>